<svg xmlns="http://www.w3.org/2000/svg" xmlns:xlink="http://www.w3.org/1999/xlink">
	<symbol id="menu" viewBox="0 0 28 28">
		<line fill="none" stroke="currentColor" stroke-width="2" stroke-linecap="round" stroke-miterlimit="10" x1="6" y1="7" x2="22" y2="7" />
		<line fill="none" stroke="currentColor" stroke-width="2" stroke-linecap="round" stroke-miterlimit="10" x1="6" y1="14" x2="22" y2="14" />
		<line fill="none" stroke="currentColor" stroke-width="2" stroke-linecap="round" stroke-miterlimit="10" x1="6" y1="21" x2="22" y2="21" />
	</symbol>

	<symbol id="close" viewBox="0 0 28 28">
		<line fill="none" stroke="currentColor" stroke-width="2" stroke-linecap="round" stroke-miterlimit="10" x1="21" y1="7" x2="7" y2="21" />
		<line fill="none" stroke="currentColor" stroke-width="2" stroke-linecap="round" stroke-miterlimit="10" x1="21" y1="21" x2="7" y2="7" />
	</symbol>

	<symbol id="add-note" viewBox="0 0 28 28">
		<polyline fill="none" stroke="currentColor" stroke-width="2" stroke-linecap="round" stroke-linejoin="round" stroke-miterlimit="10" points="
		16,6 7,6 7,23 21,23 21,13 	"/>
		<path fill="none" stroke="currentColor" stroke-width="2" stroke-linecap="round" stroke-linejoin="round" stroke-miterlimit="10" d="
		M13,15l2-4l6-6c0.6-0.6,1.4-0.6,2,0s0.6,1.4,0,2l-6,6L13,15z"/>
	</symbol>

	<symbol id="ok" viewBox="0 0 28 28">
		<polyline fill="none" stroke="currentColor" stroke-width="2" stroke-linecap="round" stroke-linejoin="round" stroke-miterlimit="10" points="7,14 12,19 21,9" />
	</symbol>

	<symbol id="delete" viewBox="0 0 28 28">
		<line fill="none" stroke="currentColor" stroke-width="2" stroke-linecap="round" stroke-linejoin="round" stroke-miterlimit="10" x1="7" y1="8" x2="21" y2="8" />
		<polyline fill="none" stroke="currentColor" stroke-width="2" stroke-linecap="round" stroke-linejoin="round" stroke-miterlimit="10" points="11,7 11,5 17,5 17,7" />
		<polyline fill="none" stroke="currentColor" stroke-width="2" stroke-linecap="round" stroke-linejoin="round" stroke-miterlimit="10" points="8,8 8,23 20,23 20,8" />
		<line fill="none" stroke="currentColor" stroke-width="2" stroke-linecap="round" stroke-linejoin="round" stroke-miterlimit="10" x1="12" y1="11" x2="12" y2="20" />
		<line fill="none" stroke="currentColor" stroke-width="2" stroke-linecap="round" stroke-linejoin="round" stroke-miterlimit="10" x1="16" y1="11" x2="16" y2="20" />
	</symbol>

	<symbol id="edit" viewBox="0 0 28 28">
		<path fill="none" stroke="currentColor" stroke-width="2" stroke-linecap="round" stroke-linejoin="round" stroke-miterlimit="10" d="M6,22l2-4L20,6c0.6-0.6,1.4-0.6,2,0s0.6,1.4,0,2L10,20L6,22z" />
		<line fill="none" stroke="currentColor" stroke-width="2" stroke-linecap="round" stroke-linejoin="round" stroke-miterlimit="10" x1="18" y1="8" x2="20" y2="10" />
	</symbol>

	<symbol id="eye" viewBox="0 0 28 28">
		<path fill="none" stroke="currentColor" stroke-width="1.5" stroke-linecap="round" stroke-linejoin="round" stroke-miterlimit="10" d="
		M14,16L14,16c-1.1,0-2-0.9-2-2v0c0-1.1,0.9-2,2-2h0c1.1,0,2,0.9,2,2v0C16,15.1,15.1,16,14,16z"/>
	<path fill="none" stroke="currentColor" stroke-width="2" stroke-linecap="round" stroke-linejoin="round" stroke-miterlimit="10" d="
		M5,14c6,6,12,6,18,0"/>
	<path fill="none" stroke="currentColor" stroke-width="2" stroke-linecap="round" stroke-linejoin="round" stroke-miterlimit="10" d="
		M5,14c6-6,12-6,18,0"/>
	</symbol>

	<symbol id="right-camera-view" viewBox="0 0 28 28">
		<rect fill="none" stroke="currentColor" stroke-width="2" stroke-linecap="round" stroke-linejoin="round" stroke-miterlimit="10" x="8" y="8" width="12" height="12"/>
		<line fill="none" stroke="currentColor" stroke-width="2" stroke-linecap="round" stroke-linejoin="round" stroke-miterlimit="10" x1="23" y1="8" x2="23" y2="20"/>
	</symbol>

	<symbol id="left-camera-view" viewBox="0 0 28 28">
		<rect display="inline" fill="none" stroke="currentColor" stroke-width="2" stroke-linecap="round" stroke-linejoin="round" stroke-miterlimit="10" x="8" y="8" width="12" height="12"/>
	
		<line display="inline" fill="none" stroke="currentColor" stroke-width="2" stroke-linecap="round" stroke-linejoin="round" stroke-miterlimit="10" x1="5" y1="8" x2="5" y2="20"/>
	</symbol>

	<symbol id="top-camera-view" viewBox="0 0 28 28">
		<rect display="inline" fill="none" stroke="currentColor" stroke-width="2" stroke-linecap="round" stroke-linejoin="round" stroke-miterlimit="10" x="8" y="8" width="12" height="12"/>
	
		<line display="inline" fill="none" stroke="currentColor" stroke-width="2" stroke-linecap="round" stroke-linejoin="round" stroke-miterlimit="10" x1="8" y1="5" x2="20" y2="5"/>
	</symbol>

	<symbol id="bottom-camera-view" viewBox="0 0 28 28">
		<rect display="inline" fill="none" stroke="currentColor" stroke-width="2" stroke-linecap="round" stroke-linejoin="round" stroke-miterlimit="10" x="8" y="8" width="12" height="12"/>
	
		<line display="inline" fill="none" stroke="currentColor" stroke-width="2" stroke-linecap="round" stroke-linejoin="round" stroke-miterlimit="10" x1="20" y1="23" x2="8" y2="23"/>
	</symbol>

	<symbol id="front-camera-view" viewBox="0 0 28 28">
		<rect display="inline" fill="none" stroke="currentColor" stroke-width="2" stroke-linecap="round" stroke-linejoin="round" stroke-miterlimit="10" x="8" y="8" width="12" height="12"/>
	
		<circle display="inline" fill="none" stroke="currentColor" stroke-width="2" stroke-linecap="round" stroke-linejoin="round" stroke-miterlimit="10" cx="14" cy="14" r="3"/>
	</symbol>

	<symbol id="back-camera-view" viewBox="0 0 28 28">
		<rect display="inline" fill="none" stroke="currentColor" stroke-width="2" stroke-linecap="round" stroke-linejoin="round" stroke-miterlimit="10" x="8" y="8" width="12" height="12"/>
	
		<circle display="inline" fill="none" stroke="currentColor" stroke-width="2" stroke-linecap="round" stroke-linejoin="round" stroke-miterlimit="10" cx="14" cy="14" r="1"/>
	</symbol>

	<symbol id="" viewBox="0 0 28 28">
	</symbol>

	<symbol id="" viewBox="0 0 28 28">
	</symbol>

	<symbol id="" viewBox="0 0 28 28">
	</symbol>

	<symbol id="" viewBox="0 0 28 28">
	</symbol>

	<symbol id="" viewBox="0 0 28 28">
	</symbol>

	<symbol id="" viewBox="0 0 28 28">
	</symbol>

	<symbol id="" viewBox="0 0 28 28">
	</symbol>
</svg>
